Real Estate Pricing Analysis in NYC
…
real_estate <- read_csv("realtor-data.csv")

# Filter real estate in NYC and remove entire row with null in any column for a one-to-one relationship between x and y
real_estate_nyc <- real_estate %>% 
        filter(state == "New York") %>% 
        filter(city == "New York City") %>% 
        na.omit()

cat("Table 1: Data for Demonstration Project")

Table 1: Data for Demonstration Project

real_estate

# A tibble: 904,966 × 10
   status     bed  bath acre_lot city   state zip_code house_size prev_sold_date
   <chr>    <dbl> <dbl>    <dbl> <chr>  <chr>    <dbl>      <dbl> <date>        
 1 for_sale     3     2     0.12 Adjun… Puer…      601        920 NA            
 2 for_sale     4     2     0.08 Adjun… Puer…      601       1527 NA            
 3 for_sale     2     1     0.15 Juana… Puer…      795        748 NA            
 4 for_sale     4     2     0.1  Ponce  Puer…      731       1800 NA            
 5 for_sale     6     2     0.05 Mayag… Puer…      680         NA NA            
 6 for_sale     4     3     0.46 San S… Puer…      612       2520 NA            
 7 for_sale     3     1     0.2  Ciales Puer…      639       2040 NA            
 8 for_sale     3     2     0.08 Ponce  Puer…      731       1050 NA            
 9 for_sale     2     1     0.09 Ponce  Puer…      730       1092 NA            
10 for_sale     5     3     7.46 Las M… Puer…      670       5403 NA            
# ℹ 904,956 more rows
# ℹ 1 more variable: price <dbl>
…
